{
     "android": {
         "release": {
             "keystore": "keystore.jks",
             "storePassword": "Agronico_2019",
             "alias": "upload",
             "password" : "Agronico_2019",
             "keystoreType": "jks"
         }
     }
}