<?xml version="1.0" encoding="utf-8"?>
<!-- Generator: Adobe Illustrator 19.2.0, SVG Export Plug-In . SVG Version: 6.00 Build 0)  -->
<svg version="1.0" id="Capa_1" xmlns="http://www.w3.org/2000/svg" xmlns:xlink="http://www.w3.org/1999/xlink" x="0px" y="0px"
	 width="110.6px" height="76.5px" viewBox="0 0 110.6 76.5" style="enable-background:new 0 0 110.6 76.5;" xml:space="preserve">
<path style="fill:#FFFFFF;" d="M104.8,66.6c0,3.3-2.6,5.9-5.9,5.9H11.6c-3.3,0-5.9-2.6-5.9-5.9V9.9C5.7,6.6,8.3,4,11.6,4h87.6
	c3.3,0,5.9,2.6,5.9,5.9v56.7H104.8z"/>
<path style="fill:#F79F1A;" d="M27.6,38.7l-2.4-11.2c-0.4-1.6-1.6-2-3-2.1H11.6v0.5C19.9,27.9,25.4,32.9,27.6,38.7z"/>
<g>
	<polygon style="fill:#059BBF;" points="52.4,25.7 45.5,25.7 41.3,50.9 48.2,50.9 	"/>
	<path style="fill:#059BBF;" d="M31.9,50.9l10.9-25.3h-7.2l-6.8,17.3L28,40.2c-1.3-3-5.1-7.6-9.6-10.5l6.2,21L31.9,50.9z"/>
	<path style="fill:#059BBF;" d="M72.1,42.7c0-2.9-1.7-5-5.8-7c-2.5-1.2-3.8-2-3.8-3c0-0.9,1.3-2.1,4.1-2.1c2.4,0,3.8,0.4,5.1,0.9
		l0.5,0.1l0.9-5.5C71.9,25.7,69.8,25,67,25c-7,0-11.7,3.4-11.7,8.4c0,3.7,3.4,5.8,6.2,7c2.6,1.2,3.7,2.1,3.7,3
		c0,1.7-2.1,2.5-4.2,2.5c-2.6,0-4.2-0.4-6.6-1.3l-0.9-0.4L52.6,50c1.6,0.8,4.6,1.3,7.6,1.3C67.3,51.3,72.1,47.9,72.1,42.7z"/>
	<path style="fill:#059BBF;" d="M80.4,47.1c0.8,0,7.9,0,8.8,0c0.1,0.9,0.8,3.8,0.8,3.8h6.6l-5.8-25.3h-5.5c-1.7,0-2.9,0.4-3.7,2.1
		L71.5,50.7h7.2C78.8,50.9,80,47.9,80.4,47.1z M85,34.9c0,0,0.5-1.6,0.9-2.5l0.4,2.1c0,0,1.3,6.2,1.6,7.2h-5.8
		C82.9,40.6,85,34.9,85,34.9z"/>
	<path style="fill:#059BBF;" d="M98.9,4H11.6C8.3,4,5.7,6.6,5.7,9.9v6.2h99.3V9.9C104.8,6.6,102.2,4,98.9,4z"/>
</g>
<path style="fill:#F79F1A;" d="M98.9,72.5H11.6c-3.3,0-5.9-2.6-5.9-5.9v-6.2h99.3v6.2C104.8,69.9,102.2,72.5,98.9,72.5z"/>
<path style="opacity:0.15;fill:#202121;enable-background:new    ;" d="M9.9,66.6V9.9c0-3.3,2.6-5.9,5.9-5.9h-4.2
	C8.3,4,5.7,6.6,5.7,9.9v56.7c0,3.3,2.6,5.9,5.9,5.9h4.2C12.5,72.5,9.9,69.9,9.9,66.6z"/>
</svg>
