<?xml version="1.0" encoding="utf-8"?>
<!-- Generator: Adobe Illustrator 16.0.0, SVG Export Plug-In . SVG Version: 6.00 Build 0)  -->
<!DOCTYPE svg PUBLIC "-//W3C//DTD SVG 1.1//EN" "http://www.w3.org/Graphics/SVG/1.1/DTD/svg11.dtd">
<svg version="1.1" id="Capa_1" xmlns="http://www.w3.org/2000/svg" xmlns:xlink="http://www.w3.org/1999/xlink" x="0px" y="0px"
	 width="800px" height="800px" viewBox="0 0 800 800" enable-background="new 0 0 800 800" xml:space="preserve">
<g>
	<path fill="#4CAF50" d="M400.092,32.883h-0.184l0,0c-204.185,0-370.227,166.088-370.227,370.318
		c0,81.007,26.108,156.088,70.5,217.053l-46.15,137.573l142.34-45.503c58.558,38.791,128.408,61.194,203.721,61.194
		c204.185,0,370.227-166.134,370.227-370.317C770.318,199.017,604.276,32.883,400.092,32.883z"/>
	<path fill="#FAFAFA" d="M615.571,555.818c-8.934,25.228-44.393,46.15-72.675,52.262c-19.35,4.12-44.623,7.405-129.704-27.867
		C304.365,535.127,234.282,424.54,228.82,417.365c-5.23-7.175-43.975-58.556-43.975-111.697c0-53.141,26.986-79.017,37.863-90.126
		c8.936-9.119,23.701-13.285,37.866-13.285c4.583,0,8.703,0.231,12.405,0.417c10.879,0.463,16.342,1.111,23.516,18.285
		c8.934,21.524,30.689,74.665,33.282,80.127c2.638,5.462,5.278,12.869,1.574,20.043c-3.472,7.406-6.527,10.693-11.988,16.989
		c-5.462,6.295-10.648,11.109-16.11,17.867c-5,5.879-10.646,12.175-4.351,23.053c6.296,10.646,28.052,46.151,60.084,74.665
		c41.337,36.801,74.851,48.559,86.839,53.558c8.935,3.703,19.581,2.823,26.108-4.12c8.285-8.935,18.516-23.746,28.931-38.327
		c7.406-10.462,16.757-11.758,26.571-8.056c9.998,3.473,62.907,29.626,73.784,35.042c10.879,5.462,18.054,8.055,20.691,12.637
		C624.506,509.02,624.506,530.544,615.571,555.818z"/>
</g>
</svg>
