<?xml version="1.0" encoding="utf-8"?>
<!-- Generator: Adobe Illustrator 22.0.0, SVG Export Plug-In . SVG Version: 6.00 Build 0)  -->
<svg version="1.1" id="Capa_1" xmlns="http://www.w3.org/2000/svg" xmlns:xlink="http://www.w3.org/1999/xlink" x="0px" y="0px"
	 viewBox="0 0 75 75" style="enable-background:new 0 0 75 75;" xml:space="preserve">
<style type="text/css">
	.st0{fill:#D7782D;}
</style>
<g>
	<g>
		<g>
			<path class="st0" d="M37.5,70C19.6,70,5,55.4,5,37.5C5,19.6,19.6,5,37.5,5C55.4,5,70,19.6,70,37.5C70,55.4,55.4,70,37.5,70z
				 M37.5,7.2C20.8,7.2,7.2,20.8,7.2,37.5c0,16.7,13.6,30.3,30.3,30.3c16.7,0,30.3-13.6,30.3-30.3C67.8,20.8,54.2,7.2,37.5,7.2z"/>
		</g>
	</g>
	<g>
		<path class="st0" d="M33.2,41.7c-0.7-0.7-1.7-1.4-2.7-1.7c0.7,0.5,1.6,1.2,2.4,2c0.9,0.9,1.5,1.8,2,2.5
			C34.6,43.4,34,42.4,33.2,41.7C33.2,41.7,33.2,41.7,33.2,41.7z"/>
		<path class="st0" d="M38.8,36.2c-0.7-0.7-1.7-1.4-2.7-1.7c0.7,0.5,1.6,1.2,2.4,2c0.9,0.9,1.5,1.8,2,2.5C40.1,38,39.5,37,38.8,36.2
			C38.8,36.2,38.8,36.2,38.8,36.2z"/>
		<path class="st0" d="M41.6,29.1c0.7,0.5,1.6,1.2,2.4,2c0.8,0.9,1.5,1.8,2,2.4c-0.3-1-0.9-2-1.6-2.8C43.7,30,42.7,29.4,41.6,29.1z"
			/>
		<path class="st0" d="M50.6,24.7c-0.9-0.9-2.2-1.4-3.9-1.4c-2.1,0-4.5,0.7-7.2,2.2c-2.7,1.4-5.5,3.5-8,6c-3.4,3.4-6.1,7.2-7.4,10.7
			c-1.4,3.6-1.3,6.6,0.4,8.3c0.9,0.9,2.2,1.4,3.9,1.4h0c2.1,0,4.5-0.7,7.2-2.2c2.7-1.4,5.5-3.5,8-6c3.4-3.4,6.1-7.2,7.4-10.7
			C52.4,29.3,52.2,26.4,50.6,24.7z M36,46.9C35.9,47,35.7,47,35.6,47c-0.2,0-0.4-0.1-0.6-0.4l0,0c-0.1-0.2-0.3-0.6-0.6-1
			c-0.4-0.6-1.2-1.8-2.2-2.9c-1.1-1.2-2.4-2-2.9-2.3c-0.4-0.2-0.7-0.4-1-0.6l-0.1,0c-0.4-0.2-0.4-0.6-0.4-0.7c0-0.2,0.2-0.4,0.7-0.4
			c0,0,0.1,0,0.2,0c0.3,0,0.9,0.1,1.5,0.2c1.3,0.3,2.7,1.1,3.6,2.1c1,1,1.7,2.3,2,3.7c0.1,0.6,0.2,1.2,0.2,1.5
			C36.2,46.4,36.2,46.7,36,46.9z M41.5,41.2c-0.1,0.1-0.2,0.2-0.4,0.2h0c-0.2,0-0.4-0.1-0.5-0.3l0-0.1c-0.1-0.2-0.3-0.6-0.5-1
			c-0.4-0.6-1.2-1.8-2.2-2.9c0,0,0,0,0,0c-1.1-1.1-2.3-1.9-2.9-2.3c-0.4-0.2-0.7-0.4-0.9-0.6l-0.1,0c-0.4-0.2-0.4-0.6-0.4-0.7
			c0-0.2,0.2-0.4,0.7-0.4c0,0,0.1,0,0.1,0c0.3,0,0.9,0.1,1.5,0.2c1.3,0.3,2.7,1.1,3.6,2.1c1,1,1.7,2.3,2,3.7
			c0.1,0.4,0.1,0.9,0.1,1.1C41.6,41,41.6,41.1,41.5,41.2z M47.1,35.9c-0.1,0.1-0.2,0.2-0.4,0.2c-0.2,0-0.4-0.1-0.6-0.4l0-0.1
			c-0.1-0.2-0.3-0.6-0.5-0.9c-0.4-0.6-1.2-1.8-2.2-2.9c-1.1-1.2-2.4-2-2.9-2.3c-0.4-0.3-0.7-0.4-1-0.6l0,0c-0.4-0.2-0.4-0.6-0.4-0.7
			c0-0.2,0.2-0.4,0.7-0.4c0,0,0.1,0,0.2,0c0.3,0,0.9,0.1,1.5,0.2c1.3,0.3,2.7,1.1,3.6,2.1c1,1,1.7,2.3,2,3.7
			c0.1,0.6,0.2,1.2,0.2,1.5C47.3,35.5,47.3,35.7,47.1,35.9z"/>
	</g>
</g>
</svg>
